{
    "parameterSets": {
        "50mm Clamp with Vertical Slot for Radiation Shield": {
            "attachment_depth": "5",
            "attachment_extra_inner_diameter": "20",
            "attachment_extra_outer_diameter": "5",
            "attachment_height": "30",
            "attachment_hole": "true",
            "attachment_hole_debug": "false",
            "attachment_hole_offset": "[0, 0, -27.6]",
            "attachment_hole_shape": "[25, 20, 0, 0, 12, 8, 0, 0]",
            "attachment_offset": "[0, 6, -5]",
            "attachment_rotation": "[0, 0, 0]",
            "attachment_screw": "true",
            "attachment_screw_assembled_offset": "[0, 0, -8]",
            "attachment_screw_head_diameter": "19",
            "attachment_screw_head_height": "5",
            "attachment_screw_nut": "false",
            "attachment_screw_nut_diameter": "25",
            "attachment_screw_nut_height": "10",
            "attachment_screw_nut_turns": "8",
            "attachment_screw_thread_diameter": "10",
            "attachment_screw_thread_length": "7",
            "attachment_screw_thread_pitch": "2",
            "attachment_screw_thread_tip_height": "2",
            "attachment_screw_thread_tip_min_fract": "0.5",
            "attachment_screw_thread_tooth_angle": "44",
            "attachment_screw_washer": "false",
            "attachment_screw_washer_diameter": "25",
            "attachment_screw_washer_thickness": "2",
            "attachment_slot_depth": "10",
            "attachment_transition_height": "30",
            "attachment_type": "🔻 slot",
            "attachment_width": "25",
            "clamp_clearance": "0.4",
            "clamp_edge_radius": "2",
            "clamp_fixed_opening_angle": "160",
            "clamp_height": "40",
            "clamp_hinge_attachment_clearance": "-10",
            "clamp_hinge_attachment_offset": "0",
            "clamp_hinge_rod_clearance": "0.2",
            "clamp_hinge_rod_diameter": "6",
            "clamp_hinge_segment_clearance": "10",
            "clamp_hinge_segments": "1",
            "clamp_hinge_thickness": "3",
            "clamp_inner_diameter": "50",
            "clamp_loose_opening_angle": "130",
            "clamp_loose_reduce": "5",
            "clamp_nut_groove_depth": "2",
            "clamp_nut_holder_thickness": "10",
            "clamp_nut_holder_width": "20",
            "clamp_nut_opening_size": "15",
            "clamp_open_angle": "110",
            "clamp_screw_base_diameter": "15",
            "clamp_screw_diameter": "10",
            "clamp_screw_holder_overhang_angle": "80",
            "clamp_screw_holder_thickness": "15",
            "clamp_screw_holder_width": "20",
            "clamp_screw_length": "50",
            "clamp_screw_max_movement_angle_inwards": "10",
            "clamp_screw_max_movement_angle_outwards": "45",
            "clamp_screw_nut_diameter": "24",
            "clamp_screw_nut_height": "10",
            "clamp_screw_nut_turns": "14",
            "clamp_screw_pitch": "2",
            "clamp_screw_position": "0.5",
            "clamp_screw_rotation": "-0.3",
            "clamp_screw_tooth_angle": "45",
            "clamp_thickness": "7",
            "positioning": "🔩 assembled",
            "rod_diameter": "49",
            "show_rod": "false"
        },
        "50mm Clamp with Loop": {
            "attachment_depth": "5",
            "attachment_extra_inner_diameter": "35",
            "attachment_extra_outer_diameter": "50",
            "attachment_height": "15",
            "attachment_hole": "true",
            "attachment_hole_debug": "false",
            "attachment_hole_offset": "[0, 0, 0]",
            "attachment_hole_shape": "[]",
            "attachment_offset": "[0, 0, -5]",
            "attachment_rotation": "[0, 0, 0]",
            "attachment_screw": "false",
            "attachment_screw_assembled_offset": "[0, 0, 0]",
            "attachment_screw_head_diameter": "19",
            "attachment_screw_head_height": "5",
            "attachment_screw_nut": "true",
            "attachment_screw_nut_diameter": "25",
            "attachment_screw_nut_height": "10",
            "attachment_screw_nut_turns": "8",
            "attachment_screw_thread_diameter": "10",
            "attachment_screw_thread_length": "30",
            "attachment_screw_thread_pitch": "2",
            "attachment_screw_thread_tip_height": "3",
            "attachment_screw_thread_tip_min_fract": "0.5",
            "attachment_screw_thread_tooth_angle": "45",
            "attachment_screw_washer": "true",
            "attachment_screw_washer_diameter": "25",
            "attachment_screw_washer_thickness": "2",
            "attachment_slot_depth": "0",
            "attachment_transition_height": "15",
            "attachment_type": "➰ loop",
            "attachment_width": "25.8",
            "clamp_clearance": "0.5",
            "clamp_edge_radius": "3",
            "clamp_fixed_opening_angle": "160",
            "clamp_height": "25",
            "clamp_hinge_attachment_clearance": "-9",
            "clamp_hinge_attachment_offset": "0",
            "clamp_hinge_rod_clearance": "0.2",
            "clamp_hinge_rod_diameter": "7",
            "clamp_hinge_segment_clearance": "9",
            "clamp_hinge_segments": "1",
            "clamp_hinge_thickness": "3",
            "clamp_inner_diameter": "50",
            "clamp_loose_opening_angle": "130",
            "clamp_loose_reduce": "5",
            "clamp_nut_groove_depth": "2",
            "clamp_nut_holder_thickness": "10",
            "clamp_nut_holder_width": "20",
            "clamp_nut_opening_size": "14",
            "clamp_open_angle": "0",
            "clamp_screw_base_diameter": "15",
            "clamp_screw_diameter": "10",
            "clamp_screw_holder_overhang_angle": "80",
            "clamp_screw_holder_thickness": "15",
            "clamp_screw_holder_width": "20",
            "clamp_screw_length": "50",
            "clamp_screw_max_movement_angle_inwards": "10",
            "clamp_screw_max_movement_angle_outwards": "45",
            "clamp_screw_nut_diameter": "24",
            "clamp_screw_nut_height": "10",
            "clamp_screw_nut_turns": "14",
            "clamp_screw_pitch": "2",
            "clamp_screw_position": "0.5",
            "clamp_screw_rotation": "-0.3",
            "clamp_screw_tooth_angle": "45",
            "clamp_thickness": "7",
            "positioning": "🔩 assembled",
            "rod_diameter": "49",
            "show_rod": "false"
        },
        "50mm Clamp with 45° Plug": {
            "attachment_clipped_to_clamp_height_bottom": "true",
            "attachment_clipped_to_clamp_height_top": "true",
            "attachment_depth": "8",
            "attachment_extra_inner_diameter": "20",
            "attachment_extra_outer_diameter": "12",
            "attachment_height": "40",
            "attachment_hole": "true",
            "attachment_hole_debug": "false",
            "attachment_hole_offset": "[0, 0, -11]",
            "attachment_hole_shape": "[25, 9, 0, 0, 11, 20, 0, 0]",
            "attachment_offset": "[0, 0, 0]",
            "attachment_rotation": "[0, 45, 0]",
            "attachment_screw": "false",
            "attachment_screw_assembled_offset": "[0, 0, 0]",
            "attachment_screw_head_diameter": "19",
            "attachment_screw_head_height": "5",
            "attachment_screw_nut": "true",
            "attachment_screw_nut_diameter": "25",
            "attachment_screw_nut_height": "10",
            "attachment_screw_nut_shape": "🍯 hex",
            "attachment_screw_nut_turns": "8",
            "attachment_screw_rotation": "0",
            "attachment_screw_thread_diameter": "10",
            "attachment_screw_thread_length": "30",
            "attachment_screw_thread_pitch": "2",
            "attachment_screw_thread_tip_height": "3",
            "attachment_screw_thread_tip_min_fract": "0.5",
            "attachment_screw_thread_tooth_angle": "45",
            "attachment_screw_washer": "true",
            "attachment_screw_washer_diameter": "25",
            "attachment_screw_washer_thickness": "2",
            "attachment_slot_depth": "8",
            "attachment_transition_height": "40",
            "attachment_type": "🔺 plug",
            "attachment_width": "25",
            "clamp_clearance": "0.4",
            "clamp_edge_radius": "2",
            "clamp_fixed_opening_angle": "160",
            "clamp_height": "40",
            "clamp_hinge_attachment_clearance": "-10",
            "clamp_hinge_attachment_offset": "0",
            "clamp_hinge_rod_clearance": "0.2",
            "clamp_hinge_rod_diameter": "6",
            "clamp_hinge_segment_clearance": "10",
            "clamp_hinge_segments": "1",
            "clamp_hinge_thickness": "3",
            "clamp_inner_diameter": "50",
            "clamp_loose_opening_angle": "130",
            "clamp_loose_reduce": "5",
            "clamp_nut_groove_depth": "2",
            "clamp_nut_holder_thickness": "10",
            "clamp_nut_holder_width": "20",
            "clamp_nut_opening_size": "15",
            "clamp_open_angle": "110",
            "clamp_screw_base_diameter": "15",
            "clamp_screw_diameter": "10",
            "clamp_screw_holder_overhang_angle": "80",
            "clamp_screw_holder_thickness": "15",
            "clamp_screw_holder_width": "20",
            "clamp_screw_length": "50",
            "clamp_screw_max_movement_angle_inwards": "10",
            "clamp_screw_max_movement_angle_outwards": "45",
            "clamp_screw_nut_diameter": "24",
            "clamp_screw_nut_height": "10",
            "clamp_screw_nut_turns": "14",
            "clamp_screw_pitch": "2",
            "clamp_screw_position": "0.5",
            "clamp_screw_rotation": "-0.3",
            "clamp_screw_tooth_angle": "45",
            "clamp_thickness": "7",
            "positioning": "🔩 assembled",
            "render_some": "false",
            "rod_diameter": "49",
            "show_rod": "false"
        },
        "50mm Clamp with 45° Slot": {
            "attachment_clipped_to_clamp_height_bottom": "true",
            "attachment_clipped_to_clamp_height_top": "true",
            "attachment_depth": "8",
            "attachment_extra_inner_diameter": "20",
            "attachment_extra_outer_diameter": "12",
            "attachment_height": "30",
            "attachment_hole": "true",
            "attachment_hole_debug": "false",
            "attachment_hole_offset": "[0, 0, -9]",
            "attachment_hole_shape": "[20, 7, 6, -15, 11, 20, 0, 0]",
            "attachment_offset": "[0, 0, 0]",
            "attachment_rotation": "[0, 45, 0]",
            "attachment_screw": "true",
            "attachment_screw_assembled_offset": "[0, 0, 1]",
            "attachment_screw_head_diameter": "19",
            "attachment_screw_head_height": "5",
            "attachment_screw_nut": "true",
            "attachment_screw_nut_diameter": "20",
            "attachment_screw_nut_height": "5",
            "attachment_screw_nut_shape": "🍯 hex",
            "attachment_screw_nut_turns": "6",
            "attachment_screw_rotation": "-15",
            "attachment_screw_thread_diameter": "10",
            "attachment_screw_thread_length": "17",
            "attachment_screw_thread_pitch": "2",
            "attachment_screw_thread_tip_height": "3",
            "attachment_screw_thread_tip_min_fract": "0.5",
            "attachment_screw_thread_tooth_angle": "45",
            "attachment_screw_washer": "false",
            "attachment_screw_washer_diameter": "25",
            "attachment_screw_washer_thickness": "2",
            "attachment_slot_depth": "8",
            "attachment_transition_height": "40",
            "attachment_type": "🔻 slot",
            "attachment_width": "30",
            "clamp_clearance": "0.4",
            "clamp_edge_radius": "2",
            "clamp_fixed_opening_angle": "160",
            "clamp_height": "40",
            "clamp_hinge_attachment_clearance": "-10",
            "clamp_hinge_attachment_offset": "0",
            "clamp_hinge_rod_clearance": "0.2",
            "clamp_hinge_rod_diameter": "6",
            "clamp_hinge_segment_clearance": "10",
            "clamp_hinge_segments": "1",
            "clamp_hinge_thickness": "3",
            "clamp_inner_diameter": "50",
            "clamp_loose_opening_angle": "130",
            "clamp_loose_reduce": "5",
            "clamp_nut_groove_depth": "2",
            "clamp_nut_holder_thickness": "10",
            "clamp_nut_holder_width": "20",
            "clamp_nut_opening_size": "15",
            "clamp_open_angle": "110",
            "clamp_screw_base_diameter": "15",
            "clamp_screw_diameter": "10",
            "clamp_screw_holder_overhang_angle": "80",
            "clamp_screw_holder_thickness": "15",
            "clamp_screw_holder_width": "20",
            "clamp_screw_length": "50",
            "clamp_screw_max_movement_angle_inwards": "10",
            "clamp_screw_max_movement_angle_outwards": "45",
            "clamp_screw_nut_diameter": "24",
            "clamp_screw_nut_height": "10",
            "clamp_screw_nut_turns": "14",
            "clamp_screw_pitch": "2",
            "clamp_screw_position": "0.5",
            "clamp_screw_rotation": "-0.3",
            "clamp_screw_tooth_angle": "45",
            "clamp_thickness": "7",
            "positioning": "🔩 assembled",
            "render_some": "false",
            "rod_diameter": "49",
            "show_rod": "false"
        },
        "50mm Clamp with Vertical Slot": {
            "attachment_depth": "5",
            "attachment_extra_inner_diameter": "20",
            "attachment_extra_outer_diameter": "5",
            "attachment_height": "30",
            "attachment_hole": "true",
            "attachment_hole_debug": "false",
            "attachment_hole_offset": "[0, 0, 0]",
            "attachment_hole_shape": "[]",
            "attachment_offset": "[0, 6, -5]",
            "attachment_rotation": "[0, 0, 0]",
            "attachment_screw": "false",
            "attachment_screw_assembled_offset": "[0, 0, 0]",
            "attachment_screw_head_diameter": "19",
            "attachment_screw_head_height": "5",
            "attachment_screw_nut": "true",
            "attachment_screw_nut_diameter": "25",
            "attachment_screw_nut_height": "10",
            "attachment_screw_nut_turns": "8",
            "attachment_screw_thread_diameter": "10",
            "attachment_screw_thread_length": "30",
            "attachment_screw_thread_pitch": "2",
            "attachment_screw_thread_tip_height": "3",
            "attachment_screw_thread_tip_min_fract": "0.5",
            "attachment_screw_thread_tooth_angle": "45",
            "attachment_screw_washer": "true",
            "attachment_screw_washer_diameter": "25",
            "attachment_screw_washer_thickness": "2",
            "attachment_slot_depth": "10",
            "attachment_transition_height": "30",
            "attachment_type": "🔻 slot",
            "attachment_width": "25",
            "clamp_clearance": "0.4",
            "clamp_edge_radius": "2",
            "clamp_fixed_opening_angle": "160",
            "clamp_height": "40",
            "clamp_hinge_attachment_clearance": "-10",
            "clamp_hinge_attachment_offset": "0",
            "clamp_hinge_rod_clearance": "0.2",
            "clamp_hinge_rod_diameter": "6",
            "clamp_hinge_segment_clearance": "10",
            "clamp_hinge_segments": "1",
            "clamp_hinge_thickness": "3",
            "clamp_inner_diameter": "50",
            "clamp_loose_opening_angle": "130",
            "clamp_loose_reduce": "5",
            "clamp_nut_groove_depth": "2",
            "clamp_nut_holder_thickness": "10",
            "clamp_nut_holder_width": "20",
            "clamp_nut_opening_size": "15",
            "clamp_open_angle": "110",
            "clamp_screw_base_diameter": "15",
            "clamp_screw_diameter": "10",
            "clamp_screw_holder_overhang_angle": "80",
            "clamp_screw_holder_thickness": "15",
            "clamp_screw_holder_width": "20",
            "clamp_screw_length": "50",
            "clamp_screw_max_movement_angle_inwards": "10",
            "clamp_screw_max_movement_angle_outwards": "45",
            "clamp_screw_nut_diameter": "24",
            "clamp_screw_nut_height": "10",
            "clamp_screw_nut_turns": "14",
            "clamp_screw_pitch": "2",
            "clamp_screw_position": "0.5",
            "clamp_screw_rotation": "-0.3",
            "clamp_screw_tooth_angle": "45",
            "clamp_thickness": "7",
            "positioning": "🔩 assembled",
            "rod_diameter": "49",
            "show_rod": "false"
        },
        "50mm Clamp for Hensel Box 900X": {
            "attachment_clipped_to_clamp_height_bottom": "true",
            "attachment_clipped_to_clamp_height_top": "false",
            "attachment_depth": "8.5",
            "attachment_extra_inner_diameter": "20",
            "attachment_extra_outer_diameter": "10.5",
            "attachment_height": "28",
            "attachment_hole": "true",
            "attachment_hole_debug": "false",
            "attachment_hole_offset": "[0, 0, -9]",
            "attachment_hole_shape": "[20, 8, 6, 30, 11, 3, 0, 0, 25, 6.6, 0, 0]",
            "attachment_offset": "[0, 0, -6]",
            "attachment_rotation": "[-3.5, 0, 0]",
            "attachment_screw": "true",
            "attachment_screw_assembled_offset": "[0, 0, 0]",
            "attachment_screw_head_diameter": "19",
            "attachment_screw_head_height": "5",
            "attachment_screw_nut": "true",
            "attachment_screw_nut_diameter": "30",
            "attachment_screw_nut_height": "10",
            "attachment_screw_nut_shape": "🔧 bar",
            "attachment_screw_nut_turns": "9",
            "attachment_screw_rotation": "30",
            "attachment_screw_thread_diameter": "10",
            "attachment_screw_thread_length": "32",
            "attachment_screw_thread_pitch": "2",
            "attachment_screw_thread_tip_height": "3",
            "attachment_screw_thread_tip_min_fract": "0.5",
            "attachment_screw_thread_tooth_angle": "45",
            "attachment_screw_washer": "true",
            "attachment_screw_washer_diameter": "30",
            "attachment_screw_washer_thickness": "2",
            "attachment_slot_depth": "0",
            "attachment_transition_height": "40",
            "attachment_type": "⚫ hole",
            "attachment_width": "28",
            "clamp_clearance": "0.5",
            "clamp_edge_radius": "2",
            "clamp_fixed_opening_angle": "160",
            "clamp_height": "40",
            "clamp_hinge_attachment_clearance": "-9",
            "clamp_hinge_attachment_offset": "0",
            "clamp_hinge_rod_clearance": "0.2",
            "clamp_hinge_rod_diameter": "7",
            "clamp_hinge_segment_clearance": "9",
            "clamp_hinge_segments": "1",
            "clamp_hinge_thickness": "3",
            "clamp_inner_diameter": "50",
            "clamp_loose_opening_angle": "130",
            "clamp_loose_reduce": "5",
            "clamp_nut_groove_depth": "2",
            "clamp_nut_holder_thickness": "10",
            "clamp_nut_holder_width": "20",
            "clamp_nut_opening_size": "14",
            "clamp_open_angle": "65",
            "clamp_screw_base_diameter": "15",
            "clamp_screw_diameter": "10",
            "clamp_screw_holder_overhang_angle": "80",
            "clamp_screw_holder_thickness": "15",
            "clamp_screw_holder_width": "20",
            "clamp_screw_length": "50",
            "clamp_screw_max_movement_angle_inwards": "10",
            "clamp_screw_max_movement_angle_outwards": "45",
            "clamp_screw_nut_diameter": "24",
            "clamp_screw_nut_height": "17",
            "clamp_screw_nut_shape": "💸 wing",
            "clamp_screw_nut_turns": "14",
            "clamp_screw_nut_wing_sizes": "[15, 30, 10]",
            "clamp_screw_nut_wing_thread_inside": "false",
            "clamp_screw_pitch": "2",
            "clamp_screw_position": "0.5",
            "clamp_screw_rotation": "-0.3",
            "clamp_screw_tooth_angle": "45",
            "clamp_thickness": "7",
            "positioning": "🔩 assembled",
            "render_some": "true",
            "rod_diameter": "49",
            "show_rod": "false"
        },
        "60mm Clamp for Hensel Box 900X": {
            "attachment_clipped_to_clamp_height_bottom": "true",
            "attachment_clipped_to_clamp_height_top": "false",
            "attachment_depth": "8.5",
            "attachment_extra_inner_diameter": "20",
            "attachment_extra_outer_diameter": "10.5",
            "attachment_height": "28",
            "attachment_hole": "true",
            "attachment_hole_debug": "false",
            "attachment_hole_offset": "[0, 0, -9]",
            "attachment_hole_shape": "[20, 8, 6, 30, 11, 3, 0, 0, 25, 6.6, 0, 0]",
            "attachment_offset": "[0, 0, -6]",
            "attachment_rotation": "[-3.5, 0, 0]",
            "attachment_screw": "true",
            "attachment_screw_assembled_offset": "[0, 0, 0]",
            "attachment_screw_head_diameter": "19",
            "attachment_screw_head_height": "5",
            "attachment_screw_nut": "true",
            "attachment_screw_nut_diameter": "30",
            "attachment_screw_nut_height": "10",
            "attachment_screw_nut_shape": "🔧 bar",
            "attachment_screw_nut_turns": "9",
            "attachment_screw_rotation": "30",
            "attachment_screw_thread_diameter": "10",
            "attachment_screw_thread_length": "32",
            "attachment_screw_thread_pitch": "2",
            "attachment_screw_thread_tip_height": "3",
            "attachment_screw_thread_tip_min_fract": "0.5",
            "attachment_screw_thread_tooth_angle": "45",
            "attachment_screw_washer": "true",
            "attachment_screw_washer_diameter": "30",
            "attachment_screw_washer_thickness": "2",
            "attachment_slot_depth": "0",
            "attachment_transition_height": "40",
            "attachment_type": "⚫ hole",
            "attachment_width": "28",
            "clamp_clearance": "0.5",
            "clamp_edge_radius": "2",
            "clamp_fixed_opening_angle": "160",
            "clamp_height": "40",
            "clamp_hinge_attachment_clearance": "-9",
            "clamp_hinge_attachment_offset": "0",
            "clamp_hinge_rod_clearance": "0.2",
            "clamp_hinge_rod_diameter": "7",
            "clamp_hinge_segment_clearance": "9",
            "clamp_hinge_segments": "1",
            "clamp_hinge_thickness": "3",
            "clamp_inner_diameter": "60",
            "clamp_loose_opening_angle": "130",
            "clamp_loose_reduce": "5",
            "clamp_nut_groove_depth": "2",
            "clamp_nut_holder_thickness": "10",
            "clamp_nut_holder_width": "20",
            "clamp_nut_opening_size": "14",
            "clamp_open_angle": "0",
            "clamp_screw_base_diameter": "15",
            "clamp_screw_diameter": "10",
            "clamp_screw_holder_overhang_angle": "80",
            "clamp_screw_holder_thickness": "15",
            "clamp_screw_holder_width": "20",
            "clamp_screw_length": "50",
            "clamp_screw_max_movement_angle_inwards": "10",
            "clamp_screw_max_movement_angle_outwards": "45",
            "clamp_screw_nut_diameter": "24",
            "clamp_screw_nut_height": "17",
            "clamp_screw_nut_shape": "💸 wing",
            "clamp_screw_nut_turns": "14",
            "clamp_screw_nut_wing_sizes": "[15, 30, 10]",
            "clamp_screw_nut_wing_thread_inside": "false",
            "clamp_screw_pitch": "2",
            "clamp_screw_position": "0.5",
            "clamp_screw_rotation": "-0.3",
            "clamp_screw_tooth_angle": "45",
            "clamp_thickness": "7",
            "positioning": "🔩 assembled",
            "render_some": "true",
            "rod_diameter": "49",
            "show_rod": "false"
        },
        "14mm Clamp for Hensel Box 900X": {
            "attachment_clipped_to_clamp_height_bottom": "true",
            "attachment_clipped_to_clamp_height_top": "false",
            "attachment_depth": "8.5",
            "attachment_extra_inner_diameter": "20",
            "attachment_extra_outer_diameter": "10.5",
            "attachment_height": "28",
            "attachment_hole": "true",
            "attachment_hole_debug": "false",
            "attachment_hole_offset": "[0, 0, -20]",
            "attachment_hole_shape": "[20, 19, 6, 30, 11, 3, 0, 0, 25, 6.6, 0, 0]",
            "attachment_offset": "[4, 0, -1]",
            "attachment_rotation": "[-3.5, 0, 0]",
            "attachment_screw": "true",
            "attachment_screw_assembled_offset": "[0, 0, 2]",
            "attachment_screw_head_diameter": "19",
            "attachment_screw_head_height": "5",
            "attachment_screw_nut": "true",
            "attachment_screw_nut_diameter": "30",
            "attachment_screw_nut_height": "10",
            "attachment_screw_nut_shape": "🔧 bar",
            "attachment_screw_nut_turns": "9",
            "attachment_screw_rotation": "30",
            "attachment_screw_thread_diameter": "10",
            "attachment_screw_thread_length": "32",
            "attachment_screw_thread_pitch": "2",
            "attachment_screw_thread_tip_height": "3",
            "attachment_screw_thread_tip_min_fract": "0.5",
            "attachment_screw_thread_tooth_angle": "45",
            "attachment_screw_washer": "true",
            "attachment_screw_washer_diameter": "30",
            "attachment_screw_washer_thickness": "2",
            "attachment_slot_depth": "0",
            "attachment_transition_height": "40",
            "attachment_type": "⚫ hole",
            "attachment_width": "28",
            "clamp_clearance": "0.5",
            "clamp_edge_radius": "2",
            "clamp_fixed_opening_angle": "140",
            "clamp_height": "30",
            "clamp_hinge_attachment_clearance": "-5",
            "clamp_hinge_attachment_offset": "0",
            "clamp_hinge_rod_clearance": "0.2",
            "clamp_hinge_rod_diameter": "7",
            "clamp_hinge_segment_clearance": "10",
            "clamp_hinge_segments": "1",
            "clamp_hinge_thickness": "2",
            "clamp_inner_diameter": "14",
            "clamp_loose_opening_angle": "100",
            "clamp_loose_reduce": "3",
            "clamp_nut_groove_depth": "2",
            "clamp_nut_holder_thickness": "10",
            "clamp_nut_holder_width": "25",
            "clamp_nut_opening_size": "14",
            "clamp_open_angle": "84",
            "clamp_screw_base_diameter": "15",
            "clamp_screw_diameter": "10",
            "clamp_screw_holder_overhang_angle": "80",
            "clamp_screw_holder_thickness": "15",
            "clamp_screw_holder_width": "25",
            "clamp_screw_length": "50",
            "clamp_screw_max_movement_angle_inwards": "10",
            "clamp_screw_max_movement_angle_outwards": "45",
            "clamp_screw_nut_diameter": "24",
            "clamp_screw_nut_height": "17",
            "clamp_screw_nut_shape": "💸 wing",
            "clamp_screw_nut_turns": "14",
            "clamp_screw_nut_wing_sizes": "[15, 30, 10]",
            "clamp_screw_nut_wing_thread_inside": "false",
            "clamp_screw_pitch": "2",
            "clamp_screw_position": "[0.5, 0.5]",
            "clamp_screw_rotation": "0",
            "clamp_screw_tooth_angle": "45",
            "clamp_thickness": "7",
            "positioning": "🔩 assembled",
            "render_some": "false",
            "rod_diameter": "49",
            "show_rod": "false"
        },
        "14mm Clamp with Vertical Slot for Radiation Shield": {
            "attachment_clipped_to_clamp_height_bottom": "true",
            "attachment_clipped_to_clamp_height_top": "false",
            "attachment_depth": "10",
            "attachment_extra_inner_diameter": "20",
            "attachment_extra_outer_diameter": "5",
            "attachment_height": "30",
            "attachment_hole": "true",
            "attachment_hole_debug": "false",
            "attachment_hole_offset": "[0, 0, -22.7]",
            "attachment_hole_shape": "[20, 20, 0, 0, 11, 8, 0, 0]",
            "attachment_offset": "[3, 0, 0]",
            "attachment_rotation": "[0, 0, 0]",
            "attachment_screw": "true",
            "attachment_screw_assembled_offset": "[0, 0, 3.2]",
            "attachment_screw_debug": "false",
            "attachment_screw_head_diameter": "19",
            "attachment_screw_head_height": "4",
            "attachment_screw_head_shape": "🔧 bar",
            "attachment_screw_nut": "false",
            "attachment_screw_nut_diameter": "25",
            "attachment_screw_nut_height": "10",
            "attachment_screw_nut_shape": "🍯 hex",
            "attachment_screw_nut_turns": "8",
            "attachment_screw_rotation": "0",
            "attachment_screw_thread_diameter": "10",
            "attachment_screw_thread_length": "7",
            "attachment_screw_thread_pitch": "2",
            "attachment_screw_thread_tip_height": "2",
            "attachment_screw_thread_tip_min_fract": "0.5",
            "attachment_screw_thread_tooth_angle": "44",
            "attachment_screw_washer": "false",
            "attachment_screw_washer_diameter": "25",
            "attachment_screw_washer_thickness": "2",
            "attachment_slot_depth": "10",
            "attachment_transition_height": "30",
            "attachment_type": "🔻 slot",
            "attachment_width": "30",
            "clamp_clearance": "0.4",
            "clamp_edge_radius": "2",
            "clamp_fixed_opening_angle": "150",
            "clamp_height": "30",
            "clamp_hinge_attachment_clearance": "-2.5",
            "clamp_hinge_attachment_offset": "0",
            "clamp_hinge_rod_clearance": "0.2",
            "clamp_hinge_rod_diameter": "7",
            "clamp_hinge_segment_clearance": "6",
            "clamp_hinge_segments": "1",
            "clamp_hinge_thickness": "2",
            "clamp_inner_diameter": "14",
            "clamp_loose_opening_angle": "110",
            "clamp_loose_reduce": "2",
            "clamp_nut_groove_depth": "2",
            "clamp_nut_holder_thickness": "10",
            "clamp_nut_holder_width": "25",
            "clamp_nut_opening_size": "14",
            "clamp_open_angle": "61",
            "clamp_screw_base_diameter": "15",
            "clamp_screw_diameter": "10",
            "clamp_screw_holder_overhang_angle": "80",
            "clamp_screw_holder_thickness": "15",
            "clamp_screw_holder_width": "25",
            "clamp_screw_length": "40",
            "clamp_screw_max_movement_angle_inwards": "10",
            "clamp_screw_max_movement_angle_outwards": "45",
            "clamp_screw_nut_diameter": "24",
            "clamp_screw_nut_height": "17",
            "clamp_screw_nut_shape": "💸 wing",
            "clamp_screw_nut_turns": "9.7",
            "clamp_screw_nut_wing_sizes": "[15, 30, 10]",
            "clamp_screw_nut_wing_thread_inside": "false",
            "clamp_screw_pitch": "2",
            "clamp_screw_position": "[0.5, 0.5]",
            "clamp_screw_rotation": "-0.5",
            "clamp_screw_tooth_angle": "45",
            "clamp_thickness": "7",
            "positioning": "🔩 assembled",
            "render_some": "false",
            "rod_diameter": "14",
            "show_rod": "false"
        },
        "16mm Clamp with Vertical Slot for Radiation Shield": {
            "attachment_clipped_to_clamp_height_bottom": "true",
            "attachment_clipped_to_clamp_height_top": "false",
            "attachment_depth": "10",
            "attachment_extra_inner_diameter": "20",
            "attachment_extra_outer_diameter": "5",
            "attachment_height": "30",
            "attachment_hole": "true",
            "attachment_hole_debug": "false",
            "attachment_hole_offset": "[0, 0, -22.7]",
            "attachment_hole_shape": "[20, 20, 0, 0, 11, 8, 0, 0]",
            "attachment_offset": "[3, 0, 0]",
            "attachment_rotation": "[0, 0, 0]",
            "attachment_screw": "true",
            "attachment_screw_assembled_offset": "[0, 0, 3.2]",
            "attachment_screw_debug": "false",
            "attachment_screw_head_diameter": "19",
            "attachment_screw_head_height": "4",
            "attachment_screw_head_shape": "🔧 bar",
            "attachment_screw_nut": "false",
            "attachment_screw_nut_diameter": "25",
            "attachment_screw_nut_height": "10",
            "attachment_screw_nut_shape": "🍯 hex",
            "attachment_screw_nut_turns": "8",
            "attachment_screw_rotation": "0",
            "attachment_screw_thread_diameter": "10",
            "attachment_screw_thread_length": "7",
            "attachment_screw_thread_pitch": "2",
            "attachment_screw_thread_tip_height": "2",
            "attachment_screw_thread_tip_min_fract": "0.5",
            "attachment_screw_thread_tooth_angle": "44",
            "attachment_screw_washer": "false",
            "attachment_screw_washer_diameter": "25",
            "attachment_screw_washer_thickness": "2",
            "attachment_slot_depth": "10",
            "attachment_transition_height": "30",
            "attachment_type": "🔻 slot",
            "attachment_width": "30",
            "clamp_clearance": "0.4",
            "clamp_edge_radius": "1.5",
            "clamp_fixed_opening_angle": "153",
            "clamp_height": "30",
            "clamp_hinge_attachment_clearance": "-2.5",
            "clamp_hinge_attachment_offset": "0",
            "clamp_hinge_rod_clearance": "0.2",
            "clamp_hinge_rod_diameter": "7",
            "clamp_hinge_segment_clearance": "6",
            "clamp_hinge_segments": "1",
            "clamp_hinge_thickness": "2",
            "clamp_inner_diameter": "16",
            "clamp_loose_opening_angle": "110",
            "clamp_loose_reduce": "1",
            "clamp_nut_groove_depth": "2",
            "clamp_nut_holder_thickness": "10",
            "clamp_nut_holder_width": "25",
            "clamp_nut_opening_size": "14",
            "clamp_open_angle": "151",
            "clamp_screw_base_diameter": "15",
            "clamp_screw_diameter": "10",
            "clamp_screw_holder_overhang_angle": "80",
            "clamp_screw_holder_thickness": "15",
            "clamp_screw_holder_width": "25",
            "clamp_screw_length": "50",
            "clamp_screw_max_movement_angle_inwards": "10",
            "clamp_screw_max_movement_angle_outwards": "45",
            "clamp_screw_nut_diameter": "24",
            "clamp_screw_nut_height": "17",
            "clamp_screw_nut_shape": "💸 wing",
            "clamp_screw_nut_turns": "9.7",
            "clamp_screw_nut_wing_sizes": "[15, 30, 10]",
            "clamp_screw_nut_wing_thread_inside": "false",
            "clamp_screw_pitch": "2",
            "clamp_screw_position": "[0.5, 0.5]",
            "clamp_screw_rotation": "-0.5",
            "clamp_screw_tooth_angle": "45",
            "clamp_thickness": "7",
            "positioning": "🖨 printable",
            "render_some": "false",
            "rod_diameter": "16",
            "show_rod": "true"
        },
        "16mm Clamp for Hensel Box 900X": {
            "attachment_clipped_to_clamp_height_bottom": "true",
            "attachment_clipped_to_clamp_height_top": "false",
            "attachment_depth": "8.5",
            "attachment_extra_inner_diameter": "20",
            "attachment_extra_outer_diameter": "10.5",
            "attachment_height": "28",
            "attachment_hole": "true",
            "attachment_hole_debug": "false",
            "attachment_hole_offset": "[0, 0, -20]",
            "attachment_hole_shape": "[20, 19, 6, 30, 11, 3, 0, 0, 25, 6.6, 0, 0]",
            "attachment_offset": "[4, 0, -1]",
            "attachment_rotation": "[-3.5, 0, 0]",
            "attachment_screw": "true",
            "attachment_screw_assembled_offset": "[0, 0, 2]",
            "attachment_screw_debug": "false",
            "attachment_screw_head_diameter": "19",
            "attachment_screw_head_height": "5",
            "attachment_screw_head_shape": "🍯 hex",
            "attachment_screw_nut": "true",
            "attachment_screw_nut_diameter": "30",
            "attachment_screw_nut_height": "10",
            "attachment_screw_nut_shape": "🔧 bar",
            "attachment_screw_nut_turns": "9",
            "attachment_screw_rotation": "30",
            "attachment_screw_thread_diameter": "10",
            "attachment_screw_thread_length": "32",
            "attachment_screw_thread_pitch": "2",
            "attachment_screw_thread_tip_height": "3",
            "attachment_screw_thread_tip_min_fract": "0.5",
            "attachment_screw_thread_tooth_angle": "45",
            "attachment_screw_washer": "true",
            "attachment_screw_washer_diameter": "30",
            "attachment_screw_washer_thickness": "2",
            "attachment_slot_depth": "0",
            "attachment_transition_height": "40",
            "attachment_type": "⚫ hole",
            "attachment_width": "28",
            "clamp_clearance": "0.5",
            "clamp_edge_radius": "1.5",
            "clamp_fixed_opening_angle": "153",
            "clamp_height": "30",
            "clamp_hinge_attachment_clearance": "-2.5",
            "clamp_hinge_attachment_offset": "0",
            "clamp_hinge_rod_clearance": "0.2",
            "clamp_hinge_rod_diameter": "7",
            "clamp_hinge_segment_clearance": "6",
            "clamp_hinge_segments": "1",
            "clamp_hinge_thickness": "2",
            "clamp_inner_diameter": "16",
            "clamp_loose_opening_angle": "108",
            "clamp_loose_reduce": "1",
            "clamp_nut_groove_depth": "2",
            "clamp_nut_holder_thickness": "10",
            "clamp_nut_holder_width": "25",
            "clamp_nut_opening_size": "14",
            "clamp_open_angle": "141",
            "clamp_screw_base_diameter": "15",
            "clamp_screw_diameter": "10",
            "clamp_screw_holder_overhang_angle": "80",
            "clamp_screw_holder_thickness": "15",
            "clamp_screw_holder_width": "25",
            "clamp_screw_length": "50",
            "clamp_screw_max_movement_angle_inwards": "10",
            "clamp_screw_max_movement_angle_outwards": "45",
            "clamp_screw_nut_diameter": "24",
            "clamp_screw_nut_height": "17",
            "clamp_screw_nut_shape": "💸 wing",
            "clamp_screw_nut_turns": "14",
            "clamp_screw_nut_wing_sizes": "[15, 30, 10]",
            "clamp_screw_nut_wing_thread_inside": "false",
            "clamp_screw_pitch": "2",
            "clamp_screw_position": "[0.5, 0.5]",
            "clamp_screw_rotation": "0",
            "clamp_screw_tooth_angle": "45",
            "clamp_thickness": "7",
            "positioning": "🖨 printable",
            "render_some": "false",
            "rod_diameter": "16",
            "show_rod": "false"
        },
        "16mm Clamp with Horizontal Slot for Radiation Shield": {
            "attachment_clipped_to_clamp_height_bottom": "true",
            "attachment_clipped_to_clamp_height_top": "false",
            "attachment_depth": "10",
            "attachment_extra_inner_diameter": "20",
            "attachment_extra_outer_diameter": "5",
            "attachment_height": "30",
            "attachment_hole": "true",
            "attachment_hole_debug": "false",
            "attachment_hole_offset": "[0, 0, -22.7]",
            "attachment_hole_shape": "[20, 20, 0, 0, 11, 8, 0, 0]",
            "attachment_offset": "[3, 0, 0]",
            "attachment_rotation": "[0, 90, 0]",
            "attachment_screw": "true",
            "attachment_screw_assembled_offset": "[0, 0, 3.2]",
            "attachment_screw_debug": "false",
            "attachment_screw_head_diameter": "19",
            "attachment_screw_head_height": "4",
            "attachment_screw_head_shape": "🔧 bar",
            "attachment_screw_nut": "false",
            "attachment_screw_nut_diameter": "25",
            "attachment_screw_nut_height": "10",
            "attachment_screw_nut_shape": "🍯 hex",
            "attachment_screw_nut_turns": "8",
            "attachment_screw_rotation": "0",
            "attachment_screw_thread_diameter": "10",
            "attachment_screw_thread_length": "7",
            "attachment_screw_thread_pitch": "2",
            "attachment_screw_thread_tip_height": "2",
            "attachment_screw_thread_tip_min_fract": "0.5",
            "attachment_screw_thread_tooth_angle": "44",
            "attachment_screw_washer": "false",
            "attachment_screw_washer_diameter": "25",
            "attachment_screw_washer_thickness": "2",
            "attachment_slot_depth": "10",
            "attachment_transition_height": "30",
            "attachment_type": "🔻 slot",
            "attachment_width": "30",
            "clamp_clearance": "0.4",
            "clamp_edge_radius": "1.5",
            "clamp_fixed_opening_angle": "153",
            "clamp_height": "30",
            "clamp_hinge_attachment_clearance": "-2.5",
            "clamp_hinge_attachment_offset": "0",
            "clamp_hinge_rod_clearance": "0.2",
            "clamp_hinge_rod_diameter": "7",
            "clamp_hinge_segment_clearance": "6",
            "clamp_hinge_segments": "1",
            "clamp_hinge_thickness": "2",
            "clamp_inner_diameter": "16",
            "clamp_loose_opening_angle": "110",
            "clamp_loose_reduce": "1",
            "clamp_nut_groove_depth": "2",
            "clamp_nut_holder_thickness": "10",
            "clamp_nut_holder_width": "25",
            "clamp_nut_opening_size": "14",
            "clamp_open_angle": "151",
            "clamp_screw_base_diameter": "15",
            "clamp_screw_diameter": "10",
            "clamp_screw_holder_overhang_angle": "80",
            "clamp_screw_holder_thickness": "15",
            "clamp_screw_holder_width": "25",
            "clamp_screw_length": "50",
            "clamp_screw_max_movement_angle_inwards": "10",
            "clamp_screw_max_movement_angle_outwards": "45",
            "clamp_screw_nut_diameter": "24",
            "clamp_screw_nut_height": "17",
            "clamp_screw_nut_shape": "💸 wing",
            "clamp_screw_nut_turns": "9.7",
            "clamp_screw_nut_wing_sizes": "[15, 30, 10]",
            "clamp_screw_nut_wing_thread_inside": "false",
            "clamp_screw_pitch": "2",
            "clamp_screw_position": "[0.5, 0.5]",
            "clamp_screw_rotation": "-0.5",
            "clamp_screw_tooth_angle": "45",
            "clamp_thickness": "7",
            "positioning": "🖨 printable",
            "render_some": "false",
            "rod_diameter": "16",
            "show_rod": "true"
        },
        "42mm Clamp with Hex Screw Hole for metal sensor boom": {
            "attachment_clipped_to_clamp_height_bottom": "false",
            "attachment_clipped_to_clamp_height_top": "false",
            "attachment_depth": "5",
            "attachment_extra_inner_diameter": "20",
            "attachment_extra_outer_diameter": "10.5",
            "attachment_height": "40",
            "attachment_hole": "true",
            "attachment_hole_debug": "false",
            "attachment_hole_offset": "[0, -6, -9]",
            "attachment_hole_shape": "[19, 7, 6, 30, 10, 10, 0, 0]",
            "attachment_offset": "[0, 0, 0]",
            "attachment_rotation": "[0, 0, 0]",
            "attachment_screw": "true",
            "attachment_screw_assembled_offset": "[0, -6, 0]",
            "attachment_screw_debug": "false",
            "attachment_screw_head_diameter": "19",
            "attachment_screw_head_height": "5",
            "attachment_screw_head_shape": "🍯 hex",
            "attachment_screw_nut": "true",
            "attachment_screw_nut_diameter": "25",
            "attachment_screw_nut_height": "10",
            "attachment_screw_nut_shape": "🔧 bar",
            "attachment_screw_nut_turns": "8",
            "attachment_screw_rotation": "30",
            "attachment_screw_thread_diameter": "10",
            "attachment_screw_thread_length": "30",
            "attachment_screw_thread_pitch": "2",
            "attachment_screw_thread_tip_height": "3",
            "attachment_screw_thread_tip_min_fract": "0.5",
            "attachment_screw_thread_tooth_angle": "45",
            "attachment_screw_washer": "true",
            "attachment_screw_washer_diameter": "25",
            "attachment_screw_washer_thickness": "2",
            "attachment_slot_depth": "0",
            "attachment_transition_height": "40",
            "attachment_type": "⚫ hole",
            "attachment_width": "25",
            "clamp_clearance": "0.5",
            "clamp_edge_radius": "2",
            "clamp_fixed_opening_angle": "160",
            "clamp_height": "40",
            "clamp_hinge_attachment_clearance": "-9",
            "clamp_hinge_attachment_offset": "0",
            "clamp_hinge_rod_clearance": "0.2",
            "clamp_hinge_rod_diameter": "7",
            "clamp_hinge_segment_clearance": "9",
            "clamp_hinge_segments": "1",
            "clamp_hinge_thickness": "3",
            "clamp_inner_diameter": "50",
            "clamp_loose_opening_angle": "130",
            "clamp_loose_reduce": "5",
            "clamp_nut_groove_depth": "2",
            "clamp_nut_holder_thickness": "10",
            "clamp_nut_holder_width": "20",
            "clamp_nut_opening_size": "14",
            "clamp_open_angle": "91",
            "clamp_screw_base_diameter": "15",
            "clamp_screw_diameter": "10",
            "clamp_screw_holder_overhang_angle": "80",
            "clamp_screw_holder_thickness": "15",
            "clamp_screw_holder_width": "20",
            "clamp_screw_length": "50",
            "clamp_screw_max_movement_angle_inwards": "10",
            "clamp_screw_max_movement_angle_outwards": "45",
            "clamp_screw_nut_diameter": "24",
            "clamp_screw_nut_height": "10",
            "clamp_screw_nut_shape": "💸 wing",
            "clamp_screw_nut_turns": "14",
            "clamp_screw_nut_wing_sizes": "[11, 25, 5]",
            "clamp_screw_nut_wing_thread_inside": "false",
            "clamp_screw_pitch": "2",
            "clamp_screw_position": "[0.33, 0.5]",
            "clamp_screw_rotation": "-0.3",
            "clamp_screw_tooth_angle": "45",
            "clamp_thickness": "7",
            "positioning": "🔩 assembled",
            "render_some": "false",
            "rod_diameter": "49",
            "show_rod": "false"
        },
        "16mm Clamp with 45° Slot": {
            "attachment_clipped_to_clamp_height_bottom": "true",
            "attachment_clipped_to_clamp_height_top": "true",
            "attachment_depth": "8",
            "attachment_extra_inner_diameter": "20",
            "attachment_extra_outer_diameter": "12",
            "attachment_height": "40",
            "attachment_hole": "true",
            "attachment_hole_debug": "false",
            "attachment_hole_offset": "[0, 0, -22.7]",
            "attachment_hole_shape": "[20, 20, 0, 0, 11, 20, 0, 0]",
            "attachment_offset": "[0, 0, 0]",
            "attachment_rotation": "[0, -45, 0]",
            "attachment_screw": "true",
            "attachment_screw_assembled_offset": "[0, 0, 3.2]",
            "attachment_screw_debug": "false",
            "attachment_screw_head_diameter": "19",
            "attachment_screw_head_height": "4",
            "attachment_screw_head_shape": "🔧 bar",
            "attachment_screw_nut": "true",
            "attachment_screw_nut_diameter": "19",
            "attachment_screw_nut_height": "5",
            "attachment_screw_nut_shape": "🍯 hex",
            "attachment_screw_nut_turns": "4.65",
            "attachment_screw_rotation": "0",
            "attachment_screw_thread_diameter": "10",
            "attachment_screw_thread_length": "17",
            "attachment_screw_thread_pitch": "2",
            "attachment_screw_thread_tip_height": "2",
            "attachment_screw_thread_tip_min_fract": "0.5",
            "attachment_screw_thread_tooth_angle": "44",
            "attachment_screw_washer": "false",
            "attachment_screw_washer_diameter": "25",
            "attachment_screw_washer_thickness": "2",
            "attachment_slot_depth": "8",
            "attachment_transition_height": "40",
            "attachment_type": "🔻 slot",
            "attachment_width": "25",
            "clamp_clearance": "0.4",
            "clamp_edge_radius": "1.5",
            "clamp_fixed_opening_angle": "153",
            "clamp_height": "30",
            "clamp_hinge_attachment_clearance": "-2.5",
            "clamp_hinge_attachment_offset": "0",
            "clamp_hinge_rod_clearance": "0.2",
            "clamp_hinge_rod_diameter": "7",
            "clamp_hinge_segment_clearance": "6",
            "clamp_hinge_segments": "1",
            "clamp_hinge_thickness": "2",
            "clamp_inner_diameter": "16",
            "clamp_loose_opening_angle": "110",
            "clamp_loose_reduce": "1",
            "clamp_nut_groove_depth": "2",
            "clamp_nut_holder_thickness": "10",
            "clamp_nut_holder_width": "25",
            "clamp_nut_opening_size": "18",
            "clamp_open_angle": "151",
            "clamp_screw_base_diameter": "15",
            "clamp_screw_diameter": "10",
            "clamp_screw_holder_overhang_angle": "80",
            "clamp_screw_holder_thickness": "15",
            "clamp_screw_holder_width": "25",
            "clamp_screw_length": "50",
            "clamp_screw_max_movement_angle_inwards": "10",
            "clamp_screw_max_movement_angle_outwards": "45",
            "clamp_screw_nut_diameter": "24",
            "clamp_screw_nut_height": "17",
            "clamp_screw_nut_shape": "💸 wing",
            "clamp_screw_nut_turns": "9.7",
            "clamp_screw_nut_wing_sizes": "[15, 30, 10]",
            "clamp_screw_nut_wing_thread_inside": "false",
            "clamp_screw_pitch": "2",
            "clamp_screw_position": "[0.5, 0.5]",
            "clamp_screw_rotation": "-0.5",
            "clamp_screw_tooth_angle": "45",
            "clamp_thickness": "7",
            "positioning": "🖨 printable",
            "render_some": "false",
            "rod_diameter": "16",
            "show_rod": "true"
        },
        "45mm Clamp with Hex Screw Hole": {
            "attachment_clipped_to_clamp_height_bottom": "false",
            "attachment_clipped_to_clamp_height_top": "false",
            "attachment_depth": "5",
            "attachment_extra_inner_diameter": "20",
            "attachment_extra_outer_diameter": "10.5",
            "attachment_height": "40",
            "attachment_hole": "true",
            "attachment_hole_debug": "false",
            "attachment_hole_offset": "[0, -6, -9]",
            "attachment_hole_shape": "[20, 7, 6, 30, 11, 10, 0, 0]",
            "attachment_offset": "[0, 0, 0]",
            "attachment_rotation": "[0, 0, 0]",
            "attachment_screw": "true",
            "attachment_screw_assembled_offset": "[0, 0, 0]",
            "attachment_screw_debug": "false",
            "attachment_screw_head_diameter": "19",
            "attachment_screw_head_height": "5",
            "attachment_screw_head_shape": "🍯 hex",
            "attachment_screw_nut": "true",
            "attachment_screw_nut_diameter": "30",
            "attachment_screw_nut_height": "10",
            "attachment_screw_nut_shape": "🔧 bar",
            "attachment_screw_nut_turns": "8",
            "attachment_screw_rotation": "0",
            "attachment_screw_thread_diameter": "10",
            "attachment_screw_thread_length": "30",
            "attachment_screw_thread_pitch": "2",
            "attachment_screw_thread_tip_height": "3",
            "attachment_screw_thread_tip_min_fract": "0.5",
            "attachment_screw_thread_tooth_angle": "45",
            "attachment_screw_washer": "true",
            "attachment_screw_washer_diameter": "30",
            "attachment_screw_washer_thickness": "2",
            "attachment_slot_depth": "0",
            "attachment_transition_height": "40",
            "attachment_type": "⚫ hole",
            "attachment_width": "25",
            "clamp_clearance": "0.5",
            "clamp_edge_radius": "2",
            "clamp_fixed_opening_angle": "160",
            "clamp_height": "40",
            "clamp_hinge_attachment_clearance": "-9",
            "clamp_hinge_attachment_offset": "0",
            "clamp_hinge_rod_clearance": "0.2",
            "clamp_hinge_rod_diameter": "7",
            "clamp_hinge_segment_clearance": "10.6",
            "clamp_hinge_segments": "1",
            "clamp_hinge_thickness": "3",
            "clamp_inner_diameter": "45",
            "clamp_loose_opening_angle": "130",
            "clamp_loose_reduce": "5",
            "clamp_nut_groove_depth": "2",
            "clamp_nut_holder_thickness": "10",
            "clamp_nut_holder_width": "20",
            "clamp_nut_opening_size": "20",
            "clamp_open_angle": "34",
            "clamp_screw_base_diameter": "15",
            "clamp_screw_debug": "false",
            "clamp_screw_diameter": "10",
            "clamp_screw_holder_overhang_angle": "80",
            "clamp_screw_holder_thickness": "15",
            "clamp_screw_holder_width": "20",
            "clamp_screw_length": "50",
            "clamp_screw_max_movement_angle_inwards": "10",
            "clamp_screw_max_movement_angle_outwards": "45",
            "clamp_screw_nut_diameter": "24",
            "clamp_screw_nut_height": "17",
            "clamp_screw_nut_shape": "💸 wing",
            "clamp_screw_nut_turns": "14",
            "clamp_screw_nut_wing_sizes": "[15, 30, 10]",
            "clamp_screw_nut_wing_thread_inside": "false",
            "clamp_screw_pitch": "2",
            "clamp_screw_position": "[0.33, 0.5]",
            "clamp_screw_rotation": "-0.3",
            "clamp_screw_tooth_angle": "45",
            "clamp_thickness": "7",
            "positioning": "🖨 printable",
            "render_some": "false",
            "rod_diameter": "42",
            "show_rod": "true"
        },
        "16mm Clamp with -45° Plug": {
            "attachment_clipped_to_clamp_height_bottom": "true",
            "attachment_clipped_to_clamp_height_top": "true",
            "attachment_depth": "8",
            "attachment_extra_inner_diameter": "20",
            "attachment_extra_outer_diameter": "12",
            "attachment_height": "40",
            "attachment_hole": "true",
            "attachment_hole_debug": "false",
            "attachment_hole_offset": "[0, 0, -22.7]",
            "attachment_hole_shape": "[20, 20, 0, 0, 11, 20, 0, 0]",
            "attachment_offset": "[0, 0, 0]",
            "attachment_rotation": "[0, -45, 0]",
            "attachment_screw": "true",
            "attachment_screw_assembled_offset": "[0, 0, 3.2]",
            "attachment_screw_debug": "false",
            "attachment_screw_head_diameter": "19",
            "attachment_screw_head_height": "4",
            "attachment_screw_head_shape": "🔧 bar",
            "attachment_screw_nut": "true",
            "attachment_screw_nut_diameter": "19",
            "attachment_screw_nut_height": "5",
            "attachment_screw_nut_shape": "🍯 hex",
            "attachment_screw_nut_turns": "5.35",
            "attachment_screw_rotation": "0",
            "attachment_screw_thread_diameter": "10",
            "attachment_screw_thread_length": "17",
            "attachment_screw_thread_pitch": "2",
            "attachment_screw_thread_tip_height": "2",
            "attachment_screw_thread_tip_min_fract": "0.5",
            "attachment_screw_thread_tooth_angle": "44",
            "attachment_screw_washer": "false",
            "attachment_screw_washer_diameter": "25",
            "attachment_screw_washer_thickness": "2",
            "attachment_slot_depth": "8",
            "attachment_transition_height": "40",
            "attachment_type": "🔺 plug",
            "attachment_width": "25",
            "clamp_clearance": "0.4",
            "clamp_edge_radius": "1.5",
            "clamp_fixed_opening_angle": "153",
            "clamp_height": "30",
            "clamp_hinge_attachment_clearance": "-2.5",
            "clamp_hinge_attachment_offset": "0",
            "clamp_hinge_rod_clearance": "0.2",
            "clamp_hinge_rod_diameter": "7",
            "clamp_hinge_segment_clearance": "6",
            "clamp_hinge_segments": "1",
            "clamp_hinge_thickness": "2",
            "clamp_inner_diameter": "16",
            "clamp_loose_opening_angle": "110",
            "clamp_loose_reduce": "1",
            "clamp_nut_groove_depth": "2",
            "clamp_nut_holder_thickness": "10",
            "clamp_nut_holder_width": "25",
            "clamp_nut_opening_size": "18",
            "clamp_open_angle": "151",
            "clamp_screw_base_diameter": "15",
            "clamp_screw_debug": "false",
            "clamp_screw_diameter": "10",
            "clamp_screw_holder_overhang_angle": "80",
            "clamp_screw_holder_thickness": "15",
            "clamp_screw_holder_width": "25",
            "clamp_screw_length": "50",
            "clamp_screw_max_movement_angle_inwards": "10",
            "clamp_screw_max_movement_angle_outwards": "45",
            "clamp_screw_nut_diameter": "24",
            "clamp_screw_nut_height": "17",
            "clamp_screw_nut_shape": "💸 wing",
            "clamp_screw_nut_turns": "9.7",
            "clamp_screw_nut_wing_sizes": "[15, 30, 10]",
            "clamp_screw_nut_wing_thread_inside": "false",
            "clamp_screw_pitch": "2",
            "clamp_screw_position": "[0.5, 0.5]",
            "clamp_screw_rotation": "-0.5",
            "clamp_screw_tooth_angle": "45",
            "clamp_thickness": "7",
            "positioning": "🖨 printable",
            "render_some": "false",
            "rod_diameter": "16",
            "show_rod": "true"
        }
    },
    "fileFormatVersion": "1"
}
